20

10 10
7
h 3 8 s
h 2 6 w
h 4 4 s
r 5 5 e
t 6 8 e
r 7 3 e
t 3 2 s
3 2

13 20
9
f 2 3 w
t 4 6 e
f 9 7 n
r 10 2 s
r 6 17 w
r 7 2 n
h 9 6 s
t 8 6 n
f 0 2 s
10 4

12 10
16
h 10 8 s
r 11 2 e
r 1 1 s
h 4 7 e
r 5 2 n
r 8 2 n
f 10 7 n
f 9 9 s
f 9 6 e
f 1 1 e
r 8 6 n
r 2 1 n
f 3 6 n
f 1 0 s
r 9 8 w
t 3 8 w
4 3

13 11
5
r 8 4 n
t 2 4 e
h 12 0 w
h 2 8 w
f 8 8 e
10 6

11 11
6
f 3 8 n
r 9 3 n
f 6 5 w
f 1 8 s
f 7 3 s
t 3 4 s
19 12

14 12
7
h 0 8 n
r 6 6 s
t 5 6 w
t 8 9 w
t 2 7 w
f 7 7 s
f 3 2 e
14 13

15 13
9
h 10 0 e
r 3 7 s
r 14 6 s
f 9 9 e
f 7 2 e
r 2 4 s
h 13 10 n
h 3 4 s
f 1 4 w
12 5

14 11
4
h 1 9 n
f 11 3 s
t 2 6 e
r 1 0 e
14 12

14 14
6
f 5 9 s
f 9 4 w
r 4 5 w
r 6 3 n
r 13 0 e
r 8 5 e
12 11

13 13
6
t 2 4 n
h 1 8 w
f 6 3 e
h 5 6 s
t 9 6 e
h 4 2 s
4 3

11 11
7
t 4 9 w
f 7 9 w
h 1 0 w
r 9 8 s
f 2 6 n
f 2 9 w
h 8 0 w
4 2

14 13
5
t 10 1 e
h 4 8 n
f 7 9 s
r 5 6 w
h 5 3 w
6 4

10 14
7
t 9 7 s
r 2 1 n
f 8 0 e
f 1 5 s
f 1 7 w
h 5 8 n
t 0 2 s
8 5

11 13
3
r 7 4 n
t 9 8 s
t 1 5 s
8 2

14 15
6
h 8 8 w
t 1 6 e
h 10 2 n
h 7 8 w
t 5 7 w
r 5 4 e
19 12

14 15
8
h 2 3 n
f 9 2 w
r 8 4 e
f 12 8 n
f 12 6 w
r 12 12 e
r 2 12 e
h 11 0 w
5 4

11 11
4
h 8 2 n
t 9 9 w
f 7 4 n
h 6 2 w
8 5

13 12
3
t 1 3 n
h 5 2 w
f 3 1 e
10 6

14 14
4
h 2 1 n
f 1 4 w
h 2 0 e
f 1 3 s
10 7

15 14
4
r 5 4 e
r 8 7 s
h 2 6 w
t 1 7 n
3 2
